<svg width="194" height="48" viewBox="0 0 194 48" fill="none" xmlns="http://www.w3.org/2000/svg">
<g clip-path="url(#clip0)">
<path d="M11.4961 47.9646H0V18.5991H11.4886L11.4961 47.9646Z" fill="#E3E3E3"/>
<path d="M27.1326 28.7679C26.4644 29.1436 25.6156 29.0911 25.0353 29.1122V25.0286L26.4308 25.1043C26.4308 25.1043 27.1265 25.5256 27.1326 25.5304C28.3036 26.6075 27.4039 28.6146 27.1326 28.7679V28.7679ZM39.1671 35.2798C38.947 34.6775 38.6032 34.127 38.1576 33.6635C37.2628 32.7377 36.4881 32.5086 35.9449 32.0443C37.1488 31.3524 37.9255 31.1008 38.7819 29.4619C39.7625 27.5756 39.7145 24.9734 39.3622 22.9466C39.1376 21.6677 38.3128 20.4215 37.42 19.5155L36.8391 19.056L35.9065 18.709L34.6676 18.5992H13.3971L13.3848 47.9648H25.0669C25.0587 44.0408 25.0669 35.8402 25.0669 35.813C25.0669 35.8266 26.2035 35.8034 26.3154 35.8198C28.1806 36.13 27.759 38.5624 27.7514 40.3308C27.7397 42.3739 27.7576 47.9648 27.7548 47.9648H39.3649C39.3731 47.9648 39.3361 41.1127 39.3361 40.5251C39.3333 38.8003 39.757 36.9024 39.1671 35.2798" fill="#E3E3E3"/>
<path d="M55.6079 39.7692C55.6079 40.7195 54.7721 41.4919 53.742 41.4919C52.7112 41.4919 51.8782 40.7195 51.8782 39.7692V26.6486C51.8782 25.6921 52.7112 24.9197 53.742 24.9197C54.7721 24.9197 55.6079 25.6921 55.6079 26.6486V39.7692ZM59.0251 18.5987H49.2102C42.5131 18.4562 40.9384 22.0557 40.9384 26.0227V40.8784C40.8004 45.5584 43.9882 48.0549 49.2102 47.9643H59.0251C65.885 48.0549 67.2942 44.8501 67.2942 40.8784V26.0227C67.2942 22.0557 65.6535 18.4562 59.0251 18.5987Z" fill="#E3E3E3"/>
<path d="M84.0587 18.5989V26.5185L83.6466 26.4634L80.5591 18.5989H68.9723L68.958 47.9645H79.8002L79.8043 37.2708H80.2123L84.1013 47.9645H95.0781L95.0631 18.5989H84.0587Z" fill="#E3E3E3"/>
<path d="M177.297 18.5989L177.304 27.4062L173.646 18.5989H162.337L162.246 47.9645H173.064L173.049 36.7131H173.403L177.686 47.9645H188.307L188.308 18.5989H177.297Z" fill="#E3E3E3"/>
<path d="M145.882 34.505L146.663 27.1546H147.069L147.877 34.505H145.882ZM149.458 47.9577H161.34L156.096 18.5989H137.385L132.568 47.9577H144.681L145.33 40.9869H148.478L149.458 47.9577Z" fill="#E3E3E3"/>
<path d="M189.719 45.5928C189.72 45.2269 189.831 44.8696 190.037 44.5661C190.243 44.2626 190.535 44.0265 190.876 43.8875C191.217 43.7485 191.592 43.7129 191.953 43.7851C192.315 43.8574 192.646 44.0343 192.907 44.2935C193.167 44.5526 193.344 44.8825 193.416 45.2415C193.487 45.6005 193.45 45.9725 193.309 46.3106C193.168 46.6486 192.929 46.9376 192.623 47.1411C192.316 47.3446 191.956 47.4534 191.587 47.4539C191.091 47.4526 190.616 47.2559 190.265 46.907C189.915 46.5581 189.718 46.0854 189.719 45.5928ZM189.17 45.5928C189.174 46.0661 189.318 46.5277 189.586 46.9195C189.853 47.3114 190.231 47.6158 190.673 47.7946C191.114 47.9734 191.599 48.0184 192.066 47.9241C192.533 47.8297 192.962 47.6002 193.298 47.2645C193.634 46.9287 193.863 46.5018 193.955 46.0374C194.046 45.573 193.998 45.0919 193.815 44.6549C193.632 44.2178 193.323 43.8443 192.926 43.5814C192.53 43.3185 192.064 43.1779 191.587 43.1774C191.269 43.1781 190.953 43.2412 190.659 43.363C190.365 43.4848 190.098 43.663 189.874 43.8873C189.649 44.1117 189.472 44.3778 189.351 44.6705C189.23 44.9631 189.169 45.2765 189.17 45.5928Z" fill="#E3E3E3"/>
<path d="M191.085 46.9982V45.7976H191.192C191.28 45.7928 191.367 45.8037 191.45 45.8297C191.512 45.8556 191.565 45.8975 191.605 45.951C191.651 46.0069 191.74 46.146 191.882 46.3716L192.253 46.9982H192.871L192.556 46.4412C192.469 46.2764 192.371 46.1182 192.26 45.9681C192.18 45.8749 192.087 45.794 191.983 45.7281C192.176 45.7073 192.355 45.6151 192.483 45.4697C192.604 45.3154 192.665 45.1234 192.655 44.9284C192.661 44.7692 192.621 44.6117 192.541 44.4737C192.474 44.3556 192.372 44.261 192.249 44.203C192.058 44.1421 191.858 44.1159 191.659 44.126H190.577V46.9982H191.085ZM191.085 44.6121H191.49C191.629 44.6047 191.768 44.6116 191.906 44.6325C191.971 44.6517 192.028 44.6924 192.067 44.7478C192.108 44.8134 192.128 44.8905 192.122 44.968C192.127 45.0487 192.108 45.1291 192.067 45.1991C192.03 45.2537 191.974 45.2934 191.91 45.3109C191.765 45.3353 191.617 45.3446 191.469 45.3388H191.085V44.6121Z" fill="#E3E3E3"/>
<path d="M105.639 8.40441C105.639 3.76384 109.492 0 114.292 0C119.071 0 122.952 3.76384 122.952 8.40441C122.952 13.0565 119.071 16.8299 114.292 16.8299C109.492 16.8299 105.639 13.0565 105.639 8.40441Z" fill="#E3E3E3"/>
<path d="M111.214 47.9646L107.215 37.0474L107.214 47.9646H96.7535L96.7144 18.5991H131.72L131.76 47.9646H121.377L121.375 37.0393L117.576 47.9646H111.214Z" fill="#E3E3E3"/>
</g>
<defs>
<clipPath id="clip0">
<rect width="194" height="48" fill="white"/>
</clipPath>
</defs>
</svg>
