<svg width="99" height="42" viewBox="0 0 99 42" fill="none" xmlns="http://www.w3.org/2000/svg">
<path d="M39.4731 9.7999L39.9808 8.78171C40.7424 7.25444 41.5039 6.23626 42.0116 5.98171C42.5193 5.72717 43.1539 5.47262 43.9154 5.47262C44.8039 5.47262 45.1847 5.72717 45.3116 6.10899C45.4385 6.4908 45.0577 7.38171 44.2962 8.78171L43.4077 10.4363C47.7231 11.0726 51.9116 11.709 55.8462 12.3453C57.1154 9.92717 57.877 8.14535 58.2577 6.9999C58.6385 5.72717 58.3847 4.58171 57.6231 3.56353C56.8616 2.54535 55.4654 1.65444 53.5616 1.14535C51.6577 0.636259 49.2462 0.381714 46.4539 0.381714C43.5347 0.381714 40.8693 0.636259 38.3308 1.27262C35.7924 1.78171 33.7616 2.67262 31.8577 3.6908C30.0808 4.70899 28.6847 5.85444 27.7962 7.12717C27.5424 7.50899 27.2885 7.8908 27.0347 8.27262C31.3501 8.65444 35.4116 9.16353 39.4731 9.7999Z" fill="#E3E3E3"/>
<path d="M30.3347 31.9454C33.2539 31.9454 35.9193 31.6909 38.4578 31.0545C40.9962 30.5454 43.1539 29.6545 44.9308 28.6363C46.7078 27.6181 48.1039 26.4727 48.9924 25.2C49.8808 23.9272 51.1501 21.7636 52.6731 18.7091L55.3385 13.4909C55.3385 13.4909 55.3385 13.4909 55.3385 13.3636C51.4039 12.6 47.2155 11.8363 43.027 11.2L37.1885 22.6545C36.3001 24.4363 35.5385 25.5818 35.0308 26.0909C34.5231 26.6 33.7616 26.8545 32.8731 26.8545C31.9847 26.8545 31.477 26.6 31.477 26.2181C31.477 25.8363 31.8578 24.6909 32.7462 22.9091L38.9655 10.6909C34.9039 10.0545 30.7155 9.41815 26.527 8.90906C25.7655 10.0545 25.0039 11.7091 23.9885 13.4909L21.3231 18.7091C19.6731 21.8909 18.7847 24.0545 18.277 25.3272C17.8962 26.6 18.1501 27.7454 18.9116 28.7636C19.6731 29.7818 21.0693 30.6727 22.9731 31.1818C25.1308 31.6909 27.5424 31.9454 30.3347 31.9454Z" fill="#E3E3E3"/>
<path d="M67.0152 17.5634L66.8883 31.3088H78.6921L83.8959 21.2543C78.0575 18.5816 68.5382 16.1634 57.4959 13.9998L48.6113 31.4361H59.9075L67.0152 17.5634Z" fill="#E3E3E3"/>
<path d="M76.7881 16.6726C79.8342 17.4362 82.4996 18.3271 84.9112 19.218L94.3035 1.01802H83.0073L76.0266 14.6362L75.5189 0.890747H64.2227L58.2573 12.5998C65.1112 13.8726 71.4573 15.1453 76.7881 16.6726Z" fill="#E3E3E3"/>
<path d="M84.9116 19.0908L83.8962 21.1272C85.4193 21.7635 86.5616 22.5272 87.577 23.1635C93.5424 27.3635 92.6539 29.5272 88.0847 31.6908C80.3424 35.2545 55.5924 37.0363 55.5924 37.0363C57.6231 34.6181 59.4001 32.0726 59.4001 32.0726C45.5655 37.7999 28.9385 40.2181 22.9731 41.109C51.7847 42.7635 86.1808 40.2181 96.8424 33.0908C102.046 29.6545 97.7308 23.9272 84.9116 19.0908Z" fill="#E3E3E3"/>
<path d="M27.1615 8.14543C22.7192 7.63634 18.2769 7.12725 13.8346 6.74543L0 5.59998C8.12308 6.61816 17.3885 7.63634 26.6538 8.90907L27.1615 8.14543Z" fill="#E3E3E3"/>
</svg>
